{
  "properties": [
    {
      "name": "jwt.secret",
      "type": "java.lang.String",
      "description": "jwt secret key."
    },
    {
      "name": "jwt.expiry",
      "type": "java.lang.Integer",
      "description": "jwt expiration time in ms."
    }
  ]
}
