{
  "extends": [
    "angular-tslint-rules",
    "tslint:recommended"
  ],
  "rulesDirectory": [
    "codelyzer"
  ],
  "rules": {
    "component-selector": [
      true,
      "element",
      "app",
      "kebab-case"
    ],
    "directive-selector": [
      true,
      "attribute",
      "app",
      "camelCase"
    ],
    "invalid-void": false,
    "max-file-line-count": false,
    "max-line-length": false,
    "newline-per-chained-call": false,
    "newline-before-return": false,
    "no-async-without-await": false,
    "no-console": false,
    "no-duplicate-imports": false,
    "no-empty": false,
    "no-floating-promises": false,
    "no-for-in": false,
    "no-import-side-effect": false,
    "no-null-keyword": false,
    "no-promise-as-boolean": false,
    "no-void-expression": false,
    "object-literal-sort-keys": false,
    "prefer-function-over-method": false,
    "strict-comparisons": false,
    "strict-string-expressions": false,
    "strict-type-predicates": false,
    "template-cyclomatic-complexity": false,
    "template-i18n": false,
    "template-use-track-by-function": false,
    "trailing-comma": false
  }
}
